Projects/project2/project_1/project_1.sim/sim_1/behav/simulate.log
Vivado Simulator 2017.2
Time resolution is 1 ps
Time:          0, CLK=          0, PC=00000000
[$s0] = 00000000, [$s1] = 00000000, [$s2] = 00000000
[$s3] = 00000000, [$s4] = 00000000, [$s5] = 00000000
[$s6] = 00000000, [$s7] = 00000000, [$t0] = 00000000
[$t1] = 00000000, [$t2] = 00000000, [$t3] = 00000000
[$t4] = 00000000, [$t5] = 00000000, [$t6] = 00000000
[$t7] = 00000000, [$t8] = 00000000, [$t9] = 00000000
Time:                  10, CLK=0, PC=00000000
[$s0] = 00000000, [$s1] = 00000000, [$s2] = 00000000
[$s3] = 00000000, [$s4] = 00000000, [$s5] = 00000000
[$s6] = 00000000, [$s7] = 00000000, [$t0] = 00000000
[$t1] = 00000000, [$t2] = 00000000, [$t3] = 00000000
[$t4] = 00000000, [$t5] = 00000000, [$t6] = 00000000
[$t7] = 00000000, [$t8] = 00000000, [$t9] = 00000000
Time:                  20, CLK=1, PC=00000000
[$s0] = 00000000, [$s1] = 00000000, [$s2] = 00000000
[$s3] = 00000000, [$s4] = 00000000, [$s5] = 00000000
[$s6] = 00000000, [$s7] = 00000000, [$t0] = 00000020
[$t1] = 00000000, [$t2] = 00000000, [$t3] = 00000000
[$t4] = 00000000, [$t5] = 00000000, [$t6] = 00000000
[$t7] = 00000000, [$t8] = 00000000, [$t9] = 00000000
Time:                  30, CLK=0, PC=00000004
[$s0] = 00000000, [$s1] = 00000000, [$s2] = 00000000
[$s3] = 00000000, [$s4] = 00000000, [$s5] = 00000000
[$s6] = 00000000, [$s7] = 00000000, [$t0] = 00000020
[$t1] = 00000000, [$t2] = 00000000, [$t3] = 00000000
[$t4] = 00000000, [$t5] = 00000000, [$t6] = 00000000
[$t7] = 00000000, [$t8] = 00000000, [$t9] = 00000000
Time:                  40, CLK=1, PC=00000004
[$s0] = 00000000, [$s1] = 00000000, [$s2] = 00000000
[$s3] = 00000000, [$s4] = 00000000, [$s5] = 00000000
[$s6] = 00000000, [$s7] = 00000000, [$t0] = 00000020
[$t1] = 00000037, [$t2] = 00000000, [$t3] = 00000000
[$t4] = 00000000, [$t5] = 00000000, [$t6] = 00000000
[$t7] = 00000000, [$t8] = 00000000, [$t9] = 00000000
Time:                  50, CLK=0, PC=00000008
[$s0] = 00000000, [$s1] = 00000000, [$s2] = 00000000
[$s3] = 00000000, [$s4] = 00000000, [$s5] = 00000000
[$s6] = 00000000, [$s7] = 00000000, [$t0] = 00000020
[$t1] = 00000037, [$t2] = 00000000, [$t3] = 00000000
[$t4] = 00000000, [$t5] = 00000000, [$t6] = 00000000
[$t7] = 00000000, [$t8] = 00000000, [$t9] = 00000000
Time:                  60, CLK=1, PC=00000008
[$s0] = 00000020, [$s1] = 00000000, [$s2] = 00000000
[$s3] = 00000000, [$s4] = 00000000, [$s5] = 00000000
[$s6] = 00000000, [$s7] = 00000000, [$t0] = 00000020
[$t1] = 00000037, [$t2] = 00000000, [$t3] = 00000000
[$t4] = 00000000, [$t5] = 00000000, [$t6] = 00000000
[$t7] = 00000000, [$t8] = 00000000, [$t9] = 00000000
Time:                  70, CLK=0, PC=0000000c
[$s0] = 00000020, [$s1] = 00000000, [$s2] = 00000000
[$s3] = 00000000, [$s4] = 00000000, [$s5] = 00000000
[$s6] = 00000000, [$s7] = 00000000, [$t0] = 00000020
[$t1] = 00000037, [$t2] = 00000000, [$t3] = 00000000
[$t4] = 00000000, [$t5] = 00000000, [$t6] = 00000000
[$t7] = 00000000, [$t8] = 00000000, [$t9] = 00000000
Time:                  80, CLK=1, PC=0000000c
[$s0] = 00000037, [$s1] = 00000000, [$s2] = 00000000
[$s3] = 00000000, [$s4] = 00000000, [$s5] = 00000000
[$s6] = 00000000, [$s7] = 00000000, [$t0] = 00000020
[$t1] = 00000037, [$t2] = 00000000, [$t3] = 00000000
[$t4] = 00000000, [$t5] = 00000000, [$t6] = 00000000
[$t7] = 00000000, [$t8] = 00000000, [$t9] = 00000000
Time:                  90, CLK=0, PC=00000010
[$s0] = 00000037, [$s1] = 00000000, [$s2] = 00000000
[$s3] = 00000000, [$s4] = 00000000, [$s5] = 00000000
[$s6] = 00000000, [$s7] = 00000000, [$t0] = 00000020
[$t1] = 00000037, [$t2] = 00000000, [$t3] = 00000000
[$t4] = 00000000, [$t5] = 00000000, [$t6] = 00000000
[$t7] = 00000000, [$t8] = 00000000, [$t9] = 00000000
Time:                 100, CLK=1, PC=00000010
[$s0] = 00000037, [$s1] = 00000000, [$s2] = 00000000
[$s3] = 00000000, [$s4] = 00000000, [$s5] = 00000000
[$s6] = 00000000, [$s7] = 00000000, [$t0] = 00000020
[$t1] = 00000037, [$t2] = 00000000, [$t3] = 00000000
[$t4] = 00000000, [$t5] = 00000000, [$t6] = 00000000
[$t7] = 00000000, [$t8] = 00000000, [$t9] = 00000000
Time:                 110, CLK=0, PC=00000014
[$s0] = 00000037, [$s1] = 00000000, [$s2] = 00000000
[$s3] = 00000000, [$s4] = 00000000, [$s5] = 00000000
[$s6] = 00000000, [$s7] = 00000000, [$t0] = 00000020
[$t1] = 00000037, [$t2] = 00000000, [$t3] = 00000000
[$t4] = 00000000, [$t5] = 00000000, [$t6] = 00000000
[$t7] = 00000000, [$t8] = 00000000, [$t9] = 00000000
Time:                 120, CLK=1, PC=00000014
[$s0] = 00000037, [$s1] = 00000000, [$s2] = 00000000
[$s3] = 00000000, [$s4] = 00000000, [$s5] = 00000000
[$s6] = 00000000, [$s7] = 00000000, [$t0] = 00000020
[$t1] = 00000037, [$t2] = 00000000, [$t3] = 00000000
[$t4] = 00000000, [$t5] = 00000000, [$t6] = 00000000
[$t7] = 00000000, [$t8] = 00000000, [$t9] = 00000000
Time:                 130, CLK=0, PC=00000018
[$s0] = 00000037, [$s1] = 00000000, [$s2] = 00000000
[$s3] = 00000000, [$s4] = 00000000, [$s5] = 00000000
[$s6] = 00000000, [$s7] = 00000000, [$t0] = 00000020
[$t1] = 00000037, [$t2] = 00000000, [$t3] = 00000000
[$t4] = 00000000, [$t5] = 00000000, [$t6] = 00000000
[$t7] = 00000000, [$t8] = 00000000, [$t9] = 00000000
Time:                 140, CLK=1, PC=00000018
[$s0] = 00000037, [$s1] = 00000057, [$s2] = 00000000
[$s3] = 00000000, [$s4] = 00000000, [$s5] = 00000000
[$s6] = 00000000, [$s7] = 00000000, [$t0] = 00000020
[$t1] = 00000037, [$t2] = 00000000, [$t3] = 00000000
[$t4] = 00000000, [$t5] = 00000000, [$t6] = 00000000
[$t7] = 00000000, [$t8] = 00000000, [$t9] = 00000000
Time:                 150, CLK=0, PC=0000001c
[$s0] = 00000037, [$s1] = 00000057, [$s2] = 00000000
[$s3] = 00000000, [$s4] = 00000000, [$s5] = 00000000
[$s6] = 00000000, [$s7] = 00000000, [$t0] = 00000020
[$t1] = 00000037, [$t2] = 00000000, [$t3] = 00000000
[$t4] = 00000000, [$t5] = 00000000, [$t6] = 00000000
[$t7] = 00000000, [$t8] = 00000000, [$t9] = 00000000
Time:                 160, CLK=1, PC=0000001c
[$s0] = 00000037, [$s1] = 00000057, [$s2] = ffffffe9
[$s3] = 00000000, [$s4] = 00000000, [$s5] = 00000000
[$s6] = 00000000, [$s7] = 00000000, [$t0] = 00000020
[$t1] = 00000037, [$t2] = 00000000, [$t3] = 00000000
[$t4] = 00000000, [$t5] = 00000000, [$t6] = 00000000
[$t7] = 00000000, [$t8] = 00000000, [$t9] = 00000000
Time:                 170, CLK=0, PC=00000020
[$s0] = 00000037, [$s1] = 00000057, [$s2] = ffffffe9
[$s3] = 00000000, [$s4] = 00000000, [$s5] = 00000000
[$s6] = 00000000, [$s7] = 00000000, [$t0] = 00000020
[$t1] = 00000037, [$t2] = 00000000, [$t3] = 00000000
[$t4] = 00000000, [$t5] = 00000000, [$t6] = 00000000
[$t7] = 00000000, [$t8] = 00000000, [$t9] = 00000000
Time:                 180, CLK=1, PC=00000020
[$s0] = 00000037, [$s1] = 00000057, [$s2] = ffffffe9
[$s3] = 00000000, [$s4] = 00000000, [$s5] = 00000000
[$s6] = 00000000, [$s7] = 00000000, [$t0] = 00000020
[$t1] = 00000037, [$t2] = 00000000, [$t3] = 00000000
[$t4] = 00000000, [$t5] = 00000000, [$t6] = 00000000
[$t7] = 00000000, [$t8] = 00000000, [$t9] = 00000000
Time:                 190, CLK=0, PC=00000024
[$s0] = 00000037, [$s1] = 00000057, [$s2] = ffffffe9
[$s3] = 00000000, [$s4] = 00000000, [$s5] = 00000000
[$s6] = 00000000, [$s7] = 00000000, [$t0] = 00000020
[$t1] = 00000037, [$t2] = 00000000, [$t3] = 00000000
[$t4] = 00000000, [$t5] = 00000000, [$t6] = 00000000
[$t7] = 00000000, [$t8] = 00000000, [$t9] = 00000000
Time:                 200, CLK=1, PC=00000024
[$s0] = 00000037, [$s1] = 00000057, [$s2] = ffffffe9
[$s3] = 00000000, [$s4] = 00000000, [$s5] = 00000000
[$s6] = 00000000, [$s7] = 00000000, [$t0] = 00000020
[$t1] = 00000037, [$t2] = 00000000, [$t3] = 00000000
[$t4] = 00000000, [$t5] = 00000000, [$t6] = 00000000
[$t7] = 00000000, [$t8] = 00000000, [$t9] = 00000000
Time:                 210, CLK=0, PC=00000028
[$s0] = 00000037, [$s1] = 00000057, [$s2] = ffffffe9
[$s3] = 00000000, [$s4] = 00000000, [$s5] = 00000000
[$s6] = 00000000, [$s7] = 00000000, [$t0] = 00000020
[$t1] = 00000037, [$t2] = 00000000, [$t3] = 00000000
[$t4] = 00000000, [$t5] = 00000000, [$t6] = 00000000
[$t7] = 00000000, [$t8] = 00000000, [$t9] = 00000000
Time:                 220, CLK=1, PC=00000028
[$s0] = 00000037, [$s1] = 00000057, [$s2] = ffffffe9
[$s3] = 00000000, [$s4] = 00000000, [$s5] = 00000000
[$s6] = 00000000, [$s7] = 00000000, [$t0] = 00000020
[$t1] = 00000037, [$t2] = 00000000, [$t3] = 00000000
[$t4] = 00000000, [$t5] = 00000000, [$t6] = 00000000
[$t7] = 00000000, [$t8] = 00000000, [$t9] = 00000000
Time:                 230, CLK=0, PC=0000002c
[$s0] = 00000037, [$s1] = 00000057, [$s2] = ffffffe9
[$s3] = 00000000, [$s4] = 00000000, [$s5] = 00000000
[$s6] = 00000000, [$s7] = 00000000, [$t0] = 00000020
[$t1] = 00000037, [$t2] = 00000000, [$t3] = 00000000
[$t4] = 00000000, [$t5] = 00000000, [$t6] = 00000000
[$t7] = 00000000, [$t8] = 00000000, [$t9] = 00000000
Time:                 240, CLK=1, PC=0000002c
[$s0] = 00000037, [$s1] = 00000057, [$s2] = ffffffe9
[$s3] = 00000000, [$s4] = 00000000, [$s5] = 00000000
[$s6] = 00000000, [$s7] = 00000000, [$t0] = 00000020
[$t1] = 00000037, [$t2] = 00000000, [$t3] = 00000000
[$t4] = 00000000, [$t5] = 00000000, [$t6] = 00000000
[$t7] = 00000000, [$t8] = 00000000, [$t9] = 00000000
Time:                 250, CLK=0, PC=00000030
[$s0] = 00000037, [$s1] = 00000057, [$s2] = ffffffe9
[$s3] = 00000000, [$s4] = 00000000, [$s5] = 00000000
[$s6] = 00000000, [$s7] = 00000000, [$t0] = 00000020
[$t1] = 00000037, [$t2] = 00000000, [$t3] = 00000000
[$t4] = 00000000, [$t5] = 00000000, [$t6] = 00000000
[$t7] = 00000000, [$t8] = 00000000, [$t9] = 00000000
Time:                 260, CLK=1, PC=00000030
[$s0] = 00000037, [$s1] = 00000037, [$s2] = ffffffe9
[$s3] = 00000000, [$s4] = 00000000, [$s5] = 00000000
[$s6] = 00000000, [$s7] = 00000000, [$t0] = 00000020
[$t1] = 00000037, [$t2] = 00000000, [$t3] = 00000000
[$t4] = 00000000, [$t5] = 00000000, [$t6] = 00000000
[$t7] = 00000000, [$t8] = 00000000, [$t9] = 00000000
Time:                 270, CLK=0, PC=00000034
[$s0] = 00000037, [$s1] = 00000037, [$s2] = ffffffe9
[$s3] = 00000000, [$s4] = 00000000, [$s5] = 00000000
[$s6] = 00000000, [$s7] = 00000000, [$t0] = 00000020
[$t1] = 00000037, [$t2] = 00000000, [$t3] = 00000000
[$t4] = 00000000, [$t5] = 00000000, [$t6] = 00000000
[$t7] = 00000000, [$t8] = 00000000, [$t9] = 00000000
Time:                 280, CLK=1, PC=00000034
[$s0] = 00000037, [$s1] = 00000037, [$s2] = 00000000
[$s3] = 00000000, [$s4] = 00000000, [$s5] = 00000000
[$s6] = 00000000, [$s7] = 00000000, [$t0] = 00000020
[$t1] = 00000037, [$t2] = 00000000, [$t3] = 00000000
[$t4] = 00000000, [$t5] = 00000000, [$t6] = 00000000
[$t7] = 00000000, [$t8] = 00000000, [$t9] = 00000000
Time:                 290, CLK=0, PC=00000038
[$s0] = 00000037, [$s1] = 00000037, [$s2] = 00000000
[$s3] = 00000000, [$s4] = 00000000, [$s5] = 00000000
[$s6] = 00000000, [$s7] = 00000000, [$t0] = 00000020
[$t1] = 00000037, [$t2] = 00000000, [$t3] = 00000000
[$t4] = 00000000, [$t5] = 00000000, [$t6] = 00000000
[$t7] = 00000000, [$t8] = 00000000, [$t9] = 00000000
Time:                 300, CLK=1, PC=00000038
[$s0] = 00000037, [$s1] = 00000037, [$s2] = 00000000
[$s3] = 00000000, [$s4] = 00000000, [$s5] = 00000000
[$s6] = 00000000, [$s7] = 00000000, [$t0] = 00000020
[$t1] = 00000037, [$t2] = 00000000, [$t3] = 00000000
[$t4] = 00000000, [$t5] = 00000000, [$t6] = 00000000
[$t7] = 00000000, [$t8] = 00000000, [$t9] = 00000000
Time:                 310, CLK=0, PC=0000003c
[$s0] = 00000037, [$s1] = 00000037, [$s2] = 00000000
[$s3] = 00000000, [$s4] = 00000000, [$s5] = 00000000
[$s6] = 00000000, [$s7] = 00000000, [$t0] = 00000020
[$t1] = 00000037, [$t2] = 00000000, [$t3] = 00000000
[$t4] = 00000000, [$t5] = 00000000, [$t6] = 00000000
[$t7] = 00000000, [$t8] = 00000000, [$t9] = 00000000
Time:                 320, CLK=1, PC=0000003c
[$s0] = 00000037, [$s1] = 00000037, [$s2] = 00000000
[$s3] = 00000000, [$s4] = 00000000, [$s5] = 00000000
[$s6] = 00000000, [$s7] = 00000000, [$t0] = 00000020
[$t1] = 00000037, [$t2] = 00000000, [$t3] = 00000000
[$t4] = 00000000, [$t5] = 00000000, [$t6] = 00000000
[$t7] = 00000000, [$t8] = 00000000, [$t9] = 00000000
Time:                 330, CLK=0, PC=00000040
[$s0] = 00000037, [$s1] = 00000037, [$s2] = 00000000
[$s3] = 00000000, [$s4] = 00000000, [$s5] = 00000000
[$s6] = 00000000, [$s7] = 00000000, [$t0] = 00000020
[$t1] = 00000037, [$t2] = 00000000, [$t3] = 00000000
[$t4] = 00000000, [$t5] = 00000000, [$t6] = 00000000
[$t7] = 00000000, [$t8] = 00000000, [$t9] = 00000000
Time:                 340, CLK=1, PC=00000040
[$s0] = 00000037, [$s1] = 00000037, [$s2] = 00000000
[$s3] = 00000000, [$s4] = 00000000, [$s5] = 00000000
[$s6] = 00000000, [$s7] = 00000000, [$t0] = 00000020
[$t1] = 00000037, [$t2] = 00000000, [$t3] = 00000000
[$t4] = 00000000, [$t5] = 00000000, [$t6] = 00000000
[$t7] = 00000000, [$t8] = 00000000, [$t9] = 00000000
Time:                 350, CLK=0, PC=00000044
[$s0] = 00000037, [$s1] = 00000037, [$s2] = 00000000
[$s3] = 00000000, [$s4] = 00000000, [$s5] = 00000000
[$s6] = 00000000, [$s7] = 00000000, [$t0] = 00000020
[$t1] = 00000037, [$t2] = 00000000, [$t3] = 00000000
[$t4] = 00000000, [$t5] = 00000000, [$t6] = 00000000
[$t7] = 00000000, [$t8] = 00000000, [$t9] = 00000000
Time:                 360, CLK=1, PC=00000044
[$s0] = 00000037, [$s1] = 00000037, [$s2] = 00000000
[$s3] = 00000000, [$s4] = 00000000, [$s5] = 00000000
[$s6] = 00000000, [$s7] = 00000000, [$t0] = 00000020
[$t1] = 00000037, [$t2] = 00000000, [$t3] = 00000000
[$t4] = 00000000, [$t5] = 00000000, [$t6] = 00000000
[$t7] = 00000000, [$t8] = 00000000, [$t9] = 00000000
Time:                 370, CLK=0, PC=00000048
[$s0] = 00000037, [$s1] = 00000037, [$s2] = 00000000
[$s3] = 00000000, [$s4] = 00000000, [$s5] = 00000000
[$s6] = 00000000, [$s7] = 00000000, [$t0] = 00000020
[$t1] = 00000037, [$t2] = 00000000, [$t3] = 00000000
[$t4] = 00000000, [$t5] = 00000000, [$t6] = 00000000
[$t7] = 00000000, [$t8] = 00000000, [$t9] = 00000000
Time:                 380, CLK=1, PC=00000048
[$s0] = 00000037, [$s1] = 00000037, [$s2] = 00000000
[$s3] = 00000020, [$s4] = 00000000, [$s5] = 00000000
[$s6] = 00000000, [$s7] = 00000000, [$t0] = 00000020
[$t1] = 00000037, [$t2] = 00000000, [$t3] = 00000000
[$t4] = 00000000, [$t5] = 00000000, [$t6] = 00000000
[$t7] = 00000000, [$t8] = 00000000, [$t9] = 00000000
Time:                 390, CLK=0, PC=0000004c
[$s0] = 00000037, [$s1] = 00000037, [$s2] = 00000000
[$s3] = 00000020, [$s4] = 00000000, [$s5] = 00000000
[$s6] = 00000000, [$s7] = 00000000, [$t0] = 00000020
[$t1] = 00000037, [$t2] = 00000000, [$t3] = 00000000
[$t4] = 00000000, [$t5] = 00000000, [$t6] = 00000000
[$t7] = 00000000, [$t8] = 00000000, [$t9] = 00000000
Time:                 400, CLK=1, PC=0000004c
[$s0] = 00000037, [$s1] = 00000037, [$s2] = 00000000
[$s3] = 00000020, [$s4] = 00000000, [$s5] = 00000000
[$s6] = 00000000, [$s7] = 00000000, [$t0] = 00000020
[$t1] = 00000037, [$t2] = 00000000, [$t3] = 00000000
[$t4] = 00000000, [$t5] = 00000000, [$t6] = 00000000
[$t7] = 00000000, [$t8] = 00000000, [$t9] = 00000000
Time:                 410, CLK=0, PC=00000050
[$s0] = 00000037, [$s1] = 00000037, [$s2] = 00000000
[$s3] = 00000020, [$s4] = 00000000, [$s5] = 00000000
[$s6] = 00000000, [$s7] = 00000000, [$t0] = 00000020
[$t1] = 00000037, [$t2] = 00000000, [$t3] = 00000000
[$t4] = 00000000, [$t5] = 00000000, [$t6] = 00000000
[$t7] = 00000000, [$t8] = 00000000, [$t9] = 00000000
Time:                 420, CLK=1, PC=00000050
[$s0] = 00000037, [$s1] = 00000037, [$s2] = 00000000
[$s3] = 00000020, [$s4] = 00000000, [$s5] = 00000000
[$s6] = 00000000, [$s7] = 00000000, [$t0] = 00000020
[$t1] = 00000037, [$t2] = 00000000, [$t3] = 00000000
[$t4] = 00000000, [$t5] = 00000000, [$t6] = 00000000
[$t7] = 00000000, [$t8] = 00000000, [$t9] = 00000000
Time:                 430, CLK=0, PC=00000054
[$s0] = 00000037, [$s1] = 00000037, [$s2] = 00000000
[$s3] = 00000020, [$s4] = 00000000, [$s5] = 00000000
[$s6] = 00000000, [$s7] = 00000000, [$t0] = 00000020
[$t1] = 00000037, [$t2] = 00000000, [$t3] = 00000000
[$t4] = 00000000, [$t5] = 00000000, [$t6] = 00000000
[$t7] = 00000000, [$t8] = 00000000, [$t9] = 00000000
Time:                 440, CLK=1, PC=00000054
[$s0] = 00000037, [$s1] = 00000037, [$s2] = 00000000
[$s3] = 00000020, [$s4] = 00000000, [$s5] = 00000000
[$s6] = 00000000, [$s7] = 00000000, [$t0] = 00000020
[$t1] = 00000037, [$t2] = 00000000, [$t3] = 00000000
[$t4] = 00000000, [$t5] = 00000000, [$t6] = 00000000
[$t7] = 00000000, [$t8] = 00000000, [$t9] = 00000000
Time:                 450, CLK=0, PC=00000058
[$s0] = 00000037, [$s1] = 00000037, [$s2] = 00000000
[$s3] = 00000020, [$s4] = 00000000, [$s5] = 00000000
[$s6] = 00000000, [$s7] = 00000000, [$t0] = 00000020
[$t1] = 00000037, [$t2] = 00000000, [$t3] = 00000000
[$t4] = 00000000, [$t5] = 00000000, [$t6] = 00000000
[$t7] = 00000000, [$t8] = 00000000, [$t9] = 00000000
Time:                 460, CLK=1, PC=00000058
[$s0] = 00000037, [$s1] = 00000037, [$s2] = 00000000
[$s3] = 00000020, [$s4] = 00000000, [$s5] = 00000000
[$s6] = 00000000, [$s7] = 00000000, [$t0] = 00000020
[$t1] = 00000037, [$t2] = 00000000, [$t3] = 00000000
[$t4] = 00000000, [$t5] = 00000000, [$t6] = 00000000
[$t7] = 00000000, [$t8] = 00000000, [$t9] = 00000000
Time:                 470, CLK=0, PC=0000005c
[$s0] = 00000037, [$s1] = 00000037, [$s2] = 00000000
[$s3] = 00000020, [$s4] = 00000000, [$s5] = 00000000
[$s6] = 00000000, [$s7] = 00000000, [$t0] = 00000020
[$t1] = 00000037, [$t2] = 00000000, [$t3] = 00000000
[$t4] = 00000000, [$t5] = 00000000, [$t6] = 00000000
[$t7] = 00000000, [$t8] = 00000000, [$t9] = 00000000
Time:                 480, CLK=1, PC=0000005c
[$s0] = 00000037, [$s1] = 00000037, [$s2] = 00000000
[$s3] = 00000020, [$s4] = 00000001, [$s5] = 00000000
[$s6] = 00000000, [$s7] = 00000000, [$t0] = 00000020
[$t1] = 00000037, [$t2] = 00000000, [$t3] = 00000000
[$t4] = 00000000, [$t5] = 00000000, [$t6] = 00000000
[$t7] = 00000000, [$t8] = 00000000, [$t9] = 00000000
Time:                 490, CLK=0, PC=00000060
[$s0] = 00000037, [$s1] = 00000037, [$s2] = 00000000
[$s3] = 00000020, [$s4] = 00000001, [$s5] = 00000000
[$s6] = 00000000, [$s7] = 00000000, [$t0] = 00000020
[$t1] = 00000037, [$t2] = 00000000, [$t3] = 00000000
[$t4] = 00000000, [$t5] = 00000000, [$t6] = 00000000
[$t7] = 00000000, [$t8] = 00000000, [$t9] = 00000000
Time:                 500, CLK=1, PC=00000060
[$s0] = 00000037, [$s1] = 00000037, [$s2] = 00000000
[$s3] = 00000020, [$s4] = 00000001, [$s5] = 00000000
[$s6] = 00000000, [$s7] = 00000000, [$t0] = 00000020
[$t1] = 00000037, [$t2] = 00000000, [$t3] = 00000000
[$t4] = 00000000, [$t5] = 00000000, [$t6] = 00000000
[$t7] = 00000000, [$t8] = 00000000, [$t9] = 00000000
Time:                 510, CLK=0, PC=00000064
[$s0] = 00000037, [$s1] = 00000037, [$s2] = 00000000
[$s3] = 00000020, [$s4] = 00000001, [$s5] = 00000000
[$s6] = 00000000, [$s7] = 00000000, [$t0] = 00000020
[$t1] = 00000037, [$t2] = 00000000, [$t3] = 00000000
[$t4] = 00000000, [$t5] = 00000000, [$t6] = 00000000
[$t7] = 00000000, [$t8] = 00000000, [$t9] = 00000000
Time:                 520, CLK=1, PC=00000064
[$s0] = 00000037, [$s1] = 00000037, [$s2] = 00000000
[$s3] = 00000020, [$s4] = 00000001, [$s5] = 00000000
[$s6] = 00000000, [$s7] = 00000000, [$t0] = 00000020
[$t1] = 00000037, [$t2] = 00000000, [$t3] = 00000000
[$t4] = 00000000, [$t5] = 00000000, [$t6] = 00000000
[$t7] = 00000000, [$t8] = 00000000, [$t9] = 00000000
Time:                 530, CLK=0, PC=00000068
[$s0] = 00000037, [$s1] = 00000037, [$s2] = 00000000
[$s3] = 00000020, [$s4] = 00000001, [$s5] = 00000000
[$s6] = 00000000, [$s7] = 00000000, [$t0] = 00000020
[$t1] = 00000037, [$t2] = 00000000, [$t3] = 00000000
[$t4] = 00000000, [$t5] = 00000000, [$t6] = 00000000
[$t7] = 00000000, [$t8] = 00000000, [$t9] = 00000000
Time:                 540, CLK=1, PC=00000068
[$s0] = 00000037, [$s1] = 00000037, [$s2] = 00000000
[$s3] = 00000020, [$s4] = 00000001, [$s5] = 00000000
[$s6] = 00000000, [$s7] = 00000000, [$t0] = 00000020
[$t1] = 00000037, [$t2] = 00000000, [$t3] = 00000000
[$t4] = 00000000, [$t5] = 00000000, [$t6] = 00000000
[$t7] = 00000000, [$t8] = 00000000, [$t9] = 00000000
Time:                 550, CLK=0, PC=0000006c
[$s0] = 00000037, [$s1] = 00000037, [$s2] = 00000000
[$s3] = 00000020, [$s4] = 00000001, [$s5] = 00000000
[$s6] = 00000000, [$s7] = 00000000, [$t0] = 00000020
[$t1] = 00000037, [$t2] = 00000000, [$t3] = 00000000
[$t4] = 00000000, [$t5] = 00000000, [$t6] = 00000000
[$t7] = 00000000, [$t8] = 00000000, [$t9] = 00000000
Time:                 560, CLK=1, PC=0000006c
[$s0] = 00000037, [$s1] = 00000037, [$s2] = 00000000
[$s3] = 00000020, [$s4] = 00000001, [$s5] = 00000000
[$s6] = 00000000, [$s7] = 00000000, [$t0] = 00000020
[$t1] = 00000037, [$t2] = 00000000, [$t3] = 00000000
[$t4] = 00000000, [$t5] = 00000000, [$t6] = 00000000
[$t7] = 00000000, [$t8] = 00000000, [$t9] = 00000000
Time:                 570, CLK=0, PC=00000070
[$s0] = 00000037, [$s1] = 00000037, [$s2] = 00000000
[$s3] = 00000020, [$s4] = 00000001, [$s5] = 00000000
[$s6] = 00000000, [$s7] = 00000000, [$t0] = 00000020
[$t1] = 00000037, [$t2] = 00000000, [$t3] = 00000000
[$t4] = 00000000, [$t5] = 00000000, [$t6] = 00000000
[$t7] = 00000000, [$t8] = 00000000, [$t9] = 00000000
Time:                 580, CLK=1, PC=00000070
[$s0] = 00000037, [$s1] = 00000037, [$s2] = 00000037
[$s3] = 00000020, [$s4] = 00000001, [$s5] = 00000000
[$s6] = 00000000, [$s7] = 00000000, [$t0] = 00000020
[$t1] = 00000037, [$t2] = 00000000, [$t3] = 00000000
[$t4] = 00000000, [$t5] = 00000000, [$t6] = 00000000
[$t7] = 00000000, [$t8] = 00000000, [$t9] = 00000000
Time:                 590, CLK=0, PC=00000074
[$s0] = 00000037, [$s1] = 00000037, [$s2] = 00000037
[$s3] = 00000020, [$s4] = 00000001, [$s5] = 00000000
[$s6] = 00000000, [$s7] = 00000000, [$t0] = 00000020
[$t1] = 00000037, [$t2] = 00000000, [$t3] = 00000000
[$t4] = 00000000, [$t5] = 00000000, [$t6] = 00000000
[$t7] = 00000000, [$t8] = 00000000, [$t9] = 00000000
Time:                 600, CLK=1, PC=00000074
[$s0] = 00000037, [$s1] = 00000037, [$s2] = 00000037
[$s3] = 00000020, [$s4] = 00000001, [$s5] = 00000000
[$s6] = 00000000, [$s7] = 00000000, [$t0] = 00000020
[$t1] = 00000037, [$t2] = 00000000, [$t3] = 00000000
[$t4] = 00000000, [$t5] = 00000000, [$t6] = 00000000
[$t7] = 00000000, [$t8] = 00000000, [$t9] = 00000000
Time:                 610, CLK=0, PC=0000005c
[$s0] = 00000037, [$s1] = 00000037, [$s2] = 00000037
[$s3] = 00000020, [$s4] = 00000001, [$s5] = 00000000
[$s6] = 00000000, [$s7] = 00000000, [$t0] = 00000020
[$t1] = 00000037, [$t2] = 00000000, [$t3] = 00000000
[$t4] = 00000000, [$t5] = 00000000, [$t6] = 00000000
[$t7] = 00000000, [$t8] = 00000000, [$t9] = 00000000
Time:                 620, CLK=1, PC=0000005c
[$s0] = 00000037, [$s1] = 00000037, [$s2] = 00000037
[$s3] = 00000020, [$s4] = 00000000, [$s5] = 00000000
[$s6] = 00000000, [$s7] = 00000000, [$t0] = 00000020
[$t1] = 00000037, [$t2] = 00000000, [$t3] = 00000000
[$t4] = 00000000, [$t5] = 00000000, [$t6] = 00000000
[$t7] = 00000000, [$t8] = 00000000, [$t9] = 00000000
Time:                 630, CLK=0, PC=00000060
[$s0] = 00000037, [$s1] = 00000037, [$s2] = 00000037
[$s3] = 00000020, [$s4] = 00000000, [$s5] = 00000000
[$s6] = 00000000, [$s7] = 00000000, [$t0] = 00000020
[$t1] = 00000037, [$t2] = 00000000, [$t3] = 00000000
[$t4] = 00000000, [$t5] = 00000000, [$t6] = 00000000
[$t7] = 00000000, [$t8] = 00000000, [$t9] = 00000000
Time:                 640, CLK=1, PC=00000060
[$s0] = 00000037, [$s1] = 00000037, [$s2] = 00000037
[$s3] = 00000020, [$s4] = 00000000, [$s5] = 00000000
[$s6] = 00000000, [$s7] = 00000000, [$t0] = 00000020
[$t1] = 00000037, [$t2] = 00000000, [$t3] = 00000000
[$t4] = 00000000, [$t5] = 00000000, [$t6] = 00000000
[$t7] = 00000000, [$t8] = 00000000, [$t9] = 00000000
Time:                 650, CLK=0, PC=00000064
[$s0] = 00000037, [$s1] = 00000037, [$s2] = 00000037
[$s3] = 00000020, [$s4] = 00000000, [$s5] = 00000000
[$s6] = 00000000, [$s7] = 00000000, [$t0] = 00000020
[$t1] = 00000037, [$t2] = 00000000, [$t3] = 00000000
[$t4] = 00000000, [$t5] = 00000000, [$t6] = 00000000
[$t7] = 00000000, [$t8] = 00000000, [$t9] = 00000000
Time:                 660, CLK=1, PC=00000064
[$s0] = 00000037, [$s1] = 00000037, [$s2] = 00000037
[$s3] = 00000020, [$s4] = 00000000, [$s5] = 00000000
[$s6] = 00000000, [$s7] = 00000000, [$t0] = 00000020
[$t1] = 00000037, [$t2] = 00000000, [$t3] = 00000000
[$t4] = 00000000, [$t5] = 00000000, [$t6] = 00000000
[$t7] = 00000000, [$t8] = 00000000, [$t9] = 00000000
Time:                 670, CLK=0, PC=00000068
[$s0] = 00000037, [$s1] = 00000037, [$s2] = 00000037
[$s3] = 00000020, [$s4] = 00000000, [$s5] = 00000000
[$s6] = 00000000, [$s7] = 00000000, [$t0] = 00000020
[$t1] = 00000037, [$t2] = 00000000, [$t3] = 00000000
[$t4] = 00000000, [$t5] = 00000000, [$t6] = 00000000
[$t7] = 00000000, [$t8] = 00000000, [$t9] = 00000000
Time:                 680, CLK=1, PC=00000068
[$s0] = 00000037, [$s1] = 00000037, [$s2] = 00000037
